total 1.8T
-rwxrwx--- 1 zare G-816158 7.3G Aug  3  2017 1119_TCX.FCC5RK6ACXX_L2_IGGCTAC.bam
-rwxrwx--- 1 zare G-816158 7.4G Aug  3  2017 1183_TCX.FCC44HKACXX_L5_ITTAGGC.bam
-rwxrwx--- 1 zare G-816158 8.6G Aug  3  2017 142_TCX.FCC5R6PACXX_L6_IGGCTAC.bam
-rwxrwx--- 1 zare G-816158 8.0G Aug  3  2017 6819_TCX.FCC6178ACXX_L3_ITTAGGC.bam
-rwxrwx--- 1 zare G-816158 8.5G Aug  3  2017 1200_TCX.FCC44HKACXX_L4_IACTGAT.bam
-rwxrwx--- 1 zare G-816158 8.2G Aug  3  2017 6894_TCX.FCC44RVACXX_L5_IACTTGA.bam
-rwxrwx--- 1 zare G-816158 9.2G Aug  3  2017 766_TCX.FCC44RVACXX_L3_ICGTACG.bam
-rwxrwx--- 1 zare G-816158  11G Aug  3  2017 812_TCX.FCC5R6PACXX_L2_IGATCAG.bam
-rwxrwx--- 1 zare G-816158 7.1G Aug  3  2017 1935_TCX.FCC5T2GACXX_L2_ITAGCTT.bam
-rwxrwx--- 1 zare G-816158  13G Aug  3  2017 7099_TCX.FCC5T1WACXX_L1_IATCACG.bam
-rwxrwx--- 1 zare G-816158 9.0G Aug  3  2017 11402_TCX.FCC5R6PACXX_L4_IACTGAT.bam
-rwxrwx--- 1 zare G-816158 8.0G Aug  3  2017 11295_TCX.FCC6178ACXX_L5_IACTGAT.bam
-rwxrwx--- 1 zare G-816158 7.8G Aug  3  2017 834_TCX.FCC6366ACXX_L7_IGTTTCG.bam
-rwxrwx--- 1 zare G-816158 6.8G Aug  3  2017 1010_TCX.FCC5RK8ACXX_L7_ICGTACG.bam
-rwxrwx--- 1 zare G-816158 7.2G Aug  3  2017 129_TCX.FCC47ADACXX_L4_IACTGAT.bam
-rwxrwx--- 1 zare G-816158  11G Aug  3  2017 1214_TCX.FCC5RNRACXX_L6_ITAGCTT.bam
-rwxrwx--- 1 zare G-816158 7.0G Aug  3  2017 1047_TCX.FCC44RVACXX_L2_IGGCTAC.bam
-rwxrwx--- 1 zare G-816158 6.7G Aug  3  2017 886_TCX.FCC6178ACXX_L3_ITAGCTT.bam
-rwxrwx--- 1 zare G-816158 7.6G Aug  3  2017 962_TCX.FCC6366ACXX_L8_IACTGAT.bam
-rwxrwx--- 1 zare G-816158 7.5G Aug  3  2017 1941_TCX.FCC6366ACXX_L8_IGAGTGG.bam
-rwxrwx--- 1 zare G-816158 7.7G Aug  3  2017 11447_TCX.FCC6178ACXX_L4_IGAGTGG.bam
-rwxrwx--- 1 zare G-816158 8.1G Aug  3  2017 11448_TCX.FCC44HKACXX_L3_IGTTTCG.bam
-rwxrwx--- 1 zare G-816158  11G Aug  3  2017 896_TCX.FCC47B4ACXX_L1_ITTAGGC.bam
-rwxrwx--- 1 zare G-816158 6.8G Aug  3  2017 141_TCX.FCC450BACXX_L2_ITAGCTT.bam
-rwxrwx--- 1 zare G-816158 7.5G Aug  3  2017 871_TCX.FCC47ADACXX_L6_IGGCTAC.bam
-rwxrwx--- 1 zare G-816158 8.2G Aug  3  2017 11371_TCX.FCC6366ACXX_L4_ITAGCTT.bam
-rwxrwx--- 1 zare G-816158 7.6G Aug  3  2017 11460_TCX.FCC47ADACXX_L7_ICGTACG.bam
-rwxrwx--- 1 zare G-816158 7.9G Aug  3  2017 777_TCX.FCC450BACXX_L8_IATTCCT.bam
-rwxrwx--- 1 zare G-816158 8.3G Aug  3  2017 859_TCX.FCC5RK6ACXX_L6_IGATCAG.bam
-rwxrwx--- 1 zare G-816158 7.7G Aug  3  2017 1121_TCX.FCC5RK6ACXX_L5_IACTTGA.bam
-rwxrwx--- 1 zare G-816158 7.8G Aug  3  2017 1944_TCX.FCC5RK6ACXX_L6_ITAGCTT.bam
-rwxrwx--- 1 zare G-816158  14G Aug  3  2017 11353_TCX.FCC5T1WACXX_L3_ICGTACG.bam
-rwxrwx--- 1 zare G-816158 9.1G Aug  3  2017 1203_TCX.FCC5T1WACXX_L7_IGTTTCG.bam
-rwxrwx--- 1 zare G-816158  12G Aug  3  2017 6810_TCX.FCC5R6PACXX_L6_ITAGCTT.bam
-rwxrwx--- 1 zare G-816158 8.8G Aug  3  2017 11497_TCX.FCC60K0ACXX_L2_ITTAGGC.bam
-rwxrwx--- 1 zare G-816158  11G Aug  3  2017 851_TCX.FCC5RK8ACXX_L6_ITAGCTT.bam
-rwxrwx--- 1 zare G-816158 7.0G Aug  3  2017 6952_TCX.FCC5T1WACXX_L8_IGAGTGG.bam
-rwxrwx--- 1 zare G-816158 5.4G Aug  3  2017 11377_TCX.FCC6178ACXX_L1_IACTTGA.bam
-rwxrwx--- 1 zare G-816158 8.8G Aug  3  2017 11491_TCX.FCC5RKCACXX_L4_IATTCCT.bam
-rwxrwx--- 1 zare G-816158 8.9G Aug  3  2017 1942_TCX.FCC44RVACXX_L6_IGATCAG.bam
-rwxrwx--- 1 zare G-816158 9.1G Aug  3  2017 1931_TCX.FCC60K0ACXX_L1_IACTGAT.bam
-rwxrwx--- 1 zare G-816158 6.1G Aug  3  2017 1943_TCX.FCC5RKCACXX_L2_IGGCTAC.bam
-rwxrwx--- 1 zare G-816158  11G Aug  3  2017 11254_TCX.FCC5R6PACXX_L8_IATTCCT.bam
-rwxrwx--- 1 zare G-816158 9.1G Aug  3  2017 991_TCX.FCC47B4ACXX_L4_IATTCCT.bam
-rwxrwx--- 1 zare G-816158 7.4G Aug  3  2017 731_TCX.FCC44HKACXX_L2_IGGCTAC.bam
-rwxrwx--- 1 zare G-816158  11G Aug  3  2017 11440_TCX.FCC47B4ACXX_L2_ITAGCTT.bam
-rwxrwx--- 1 zare G-816158 7.7G Aug  3  2017 11493_TCX.FCC6366ACXX_L6_IACTGAT.bam
-rwxrwx--- 1 zare G-816158 8.1G Aug  3  2017 11255_TCX.FCC6178ACXX_L2_IGATCAG.bam
-rwxrwx--- 1 zare G-816158 7.3G Aug  3  2017 843_TCX.FCC5RNRACXX_L7_IGTTTCG.bam
-rwxrwx--- 1 zare G-816158 7.5G Aug  3  2017 11503_TCX.FCC5RNRACXX_L4_IACTGAT.bam
-rwxrwx--- 1 zare G-816158 7.7G Aug  3  2017 6913_TCX.FCC44HKACXX_L8_IACTGAT.bam
-rwxrwx--- 1 zare G-816158 6.1G Aug  3  2017 1925_TCX.FCC6178ACXX_L1_IGTTTCG.bam
-rwxrwx--- 1 zare G-816158 9.4G Aug  3  2017 1123_TCX.FCC47B4ACXX_L5_IACTTGA.bam
-rwxrwx--- 1 zare G-816158  11G Aug  3  2017 11374_TCX.FCC47B4ACXX_L2_IGGCTAC.bam
-rwxrwx--- 1 zare G-816158 7.0G Aug  3  2017 892_TCX.FCC5RKCACXX_L6_IGGCTAC.bam
-rwxrwx--- 1 zare G-816158 6.2G Aug  3  2017 1940_TCX.FCC5RK8ACXX_L3_IGTTTCG.bam
-rwxrwx--- 1 zare G-816158 9.5G Aug  3  2017 11438_TCX.FCC5RK6ACXX_L3_ICGTACG.bam
-rwxrwx--- 1 zare G-816158  12G Aug  3  2017 7016_TCX.FCC450BACXX_L6_ITAGCTT.bam
-rwxrwx--- 1 zare G-816158 9.2G Aug  3  2017 11305_TCX.FCC5T1WACXX_L1_ITTAGGC.bam
-rwxrwx--- 1 zare G-816158 6.8G Aug  3  2017 11408_TCX.FCC60K0ACXX_L4_IACTTGA.bam
-rwxrwx--- 1 zare G-816158 7.7G Aug  3  2017 11349_TCX.FCC47B4ACXX_L3_ICGTACG.bam
-rwxrwx--- 1 zare G-816158 6.8G Aug  3  2017 11306_TCX.FCC44HKACXX_L7_ICGTACG.bam
-rwxrwx--- 1 zare G-816158 6.9G Aug  3  2017 1930_TCX.FCC47ADACXX_L7_IGTTTCG.bam
-rwxrwx--- 1 zare G-816158 9.6G Aug  3  2017 828_TCX.FCC5RNRACXX_L6_IGGCTAC.bam
-rwxrwx--- 1 zare G-816158 7.0G Aug  3  2017 1098_TCX.FCC6366ACXX_L7_ICGTACG.bam
-rwxrwx--- 1 zare G-816158 8.1G Aug  3  2017 11300_TCX.FCC5RK8ACXX_L4_IGAGTGG.bam
-rwxrwx--- 1 zare G-816158 7.0G Aug  3  2017 1166_TCX.FCC5T1WACXX_L4_IACTGAT.bam
-rwxrwx--- 1 zare G-816158  12G Aug  3  2017 11495_TCX.FCC5R6PACXX_L7_IGTTTCG.bam
-rwxrwx--- 1 zare G-816158 7.8G Aug  3  2017 736_TCX.FCC6366ACXX_L5_IACTTGA.bam
-rwxrwx--- 1 zare G-816158 8.0G Aug  3  2017 1078_TCX.FCC6178ACXX_L8_IGGCTAC.bam
-rwxrwx--- 1 zare G-816158 8.7G Aug  3  2017 1172_TCX.FCC6366ACXX_L5_ICGTACG.bam
-rwxrwx--- 1 zare G-816158 9.9G Aug  3  2017 11358_TCX.FCC5R6PACXX_L5_IATCACG.bam
-rwxrwx--- 1 zare G-816158  11G Aug  3  2017 11366_TCX.FCC47B4ACXX_L8_IATTCCT.bam
-rwxrwx--- 1 zare G-816158 9.7G Aug  3  2017 1114_TCX.FCC5R6PACXX_L2_ITAGCTT.bam
-rwxrwx--- 1 zare G-816158  12G Aug  3  2017 1015_TCX.FCC47B4ACXX_L6_IGGCTAC.bam
-rwxrwx--- 1 zare G-816158 7.9G Aug  3  2017 6872_TCX.FCC47B4ACXX_L6_ITAGCTT.bam
-rwxrwx--- 1 zare G-816158 9.8G Aug  3  2017 1046_TCX.FCC5RNRACXX_L5_IACTTGA.bam
-rwxrwx--- 1 zare G-816158 6.6G Aug  3  2017 6914_TCX.FCC5RK8ACXX_L7_IGTGGCC.bam
-rwxrwx--- 1 zare G-816158 7.8G Aug  3  2017 1929_TCX.FCC5T1WACXX_L8_IATTCCT.bam
-rwxrwx--- 1 zare G-816158 7.0G Aug  3  2017 1923_TCX.FCC60K0ACXX_L3_IGTTTCG.bam
-rwxrwx--- 1 zare G-816158 9.3G Aug  3  2017 1956_TCX.FCC450BACXX_L5_IACTTGA.bam
-rwxrwx--- 1 zare G-816158 7.1G Aug  3  2017 894_TCX.FCC5T2GACXX_L5_ITTAGGC.bam
-rwxrwx--- 1 zare G-816158 8.1G Aug  3  2017 791_TCX.FCC44HKACXX_L4_IATTCCT.bam
-rwxrwx--- 1 zare G-816158 7.1G Aug  3  2017 732_TCX.FCC5RK8ACXX_L4_IATTCCT.bam
-rwxrwx--- 1 zare G-816158 8.7G Aug  3  2017 1937_TCX.FCC6366ACXX_L3_IACTGAT.bam
-rwxrwx--- 1 zare G-816158 9.5G Aug  3  2017 11403_TCX.FCC6178ACXX_L6_ITTAGGC.bam
-rwxrwx--- 1 zare G-816158 7.7G Aug  3  2017 11267_TCX.FCC5RNRACXX_L8_IATTCCT.bam
-rwxrwx--- 1 zare G-816158  11G Aug  3  2017 11507_TCX.FCC5R6PACXX_L1_ITTAGGC.bam
-rwxrwx--- 1 zare G-816158 7.7G Aug  3  2017 11253_TCX.FCC60K0ACXX_L5_IACTGAT.bam
-rwxrwx--- 1 zare G-816158 8.4G Aug  3  2017 952_TCX.FCC6366ACXX_L6_IGGCTAC.bam
-rwxrwx--- 1 zare G-816158 8.0G Aug  3  2017 6870_TCX.FCC6178ACXX_L2_IGTGGCC.bam
-rwxrwx--- 1 zare G-816158  12G Aug  3  2017 787_TCX.FCC5R6PACXX_L5_IACTTGA.bam
-rwxrwx--- 1 zare G-816158 6.7G Aug  3  2017 751_TCX.FCC5RKCACXX_L1_IACTTGA.bam
-rwxrwx--- 1 zare G-816158 9.0G Aug  3  2017 1964_TCX.FCC44HKACXX_L5_IACTTGA.bam
-rwxrwx--- 1 zare G-816158 7.2G Aug  3  2017 1058_TCX.FCC44RVACXX_L4_IATTCCT.bam
-rwxrwx--- 1 zare G-816158 7.0G Aug  3  2017 11281_TCX.FCC5RKCACXX_L2_ITAGCTT.bam
-rwxrwx--- 1 zare G-816158 8.8G Aug  3  2017 11500_TCX.FCC60K0ACXX_L5_IATTCCT.bam
-rwxrwx--- 1 zare G-816158 9.8G Aug  3  2017 1271_TCX.FCC5RNRACXX_L3_ICGTACG.bam
-rwxrwx--- 1 zare G-816158 9.3G Aug  3  2017 1036_TCX.FCC47B4ACXX_L1_IACTTGA.bam
-rwxrwx--- 1 zare G-816158 8.5G Aug  3  2017 966_TCX.FCC5R6PACXX_L1_IACTTGA.bam
-rwxrwx--- 1 zare G-816158 8.1G Aug  3  2017 6863_TCX.FCC5RK6ACXX_L8_IGAGTGG.bam
-rwxrwx--- 1 zare G-816158 9.1G Aug  3  2017 1005_TCX.FCC5RK6ACXX_L8_IATTCCT.bam
-rwxrwx--- 1 zare G-816158 6.7G Aug  3  2017 1959_TCX.FCC5RK8ACXX_L8_IATTCCT.bam
-rwxrwx--- 1 zare G-816158  17G Aug  3  2017 135_TCX.FCC47ADACXX_L3_ICGTACG.bam
-rwxrwx--- 1 zare G-816158  12G Aug  3  2017 11298_TCX.FCC44HKACXX_L3_ICGTACG.bam
-rwxrwx--- 1 zare G-816158  11G Aug  3  2017 1275_TCX.FCC5R6PACXX_L4_IGAGTGG.bam
-rwxrwx--- 1 zare G-816158  11G Aug  3  2017 11412_TCX.FCC5RK6ACXX_L7_ICGTACG.bam
-rwxrwx--- 1 zare G-816158 8.0G Aug  3  2017 1933_TCX.FCC5RNRACXX_L1_IACTTGA.bam
-rwxrwx--- 1 zare G-816158 6.4G Aug  3  2017 813_TCX.FCC5T2GACXX_L1_IACTTGA.bam
-rwxrwx--- 1 zare G-816158 8.1G Aug  3  2017 1952_TCX.FCC5RNRACXX_L2_IGATCAG.bam
-rwxrwx--- 1 zare G-816158 8.2G Aug  3  2017 6821_TCX.FCC6366ACXX_L4_IGTTTCG.bam
-rwxrwx--- 1 zare G-816158 8.7G Aug  3  2017 1029_TCX.FCC5RK8ACXX_L3_ICGTACG.bam
-rwxrwx--- 1 zare G-816158 6.8G Aug  3  2017 11456_TCX.FCC6178ACXX_L5_IGTTTCG.bam
-rwxrwx--- 1 zare G-816158 7.6G Aug  3  2017 742_TCX.FCC44RVACXX_L7_ICGTACG.bam
-rwxrwx--- 1 zare G-816158 9.0G Aug  3  2017 149_TCX.FCC60K0ACXX_L3_IGGCTAC.bam
-rwxrwx--- 1 zare G-816158 7.6G Aug  3  2017 1239_TCX.FCC6178ACXX_L3_IGATCAG.bam
-rwxrwx--- 1 zare G-816158  12G Aug  3  2017 1105_TCX.FCC5T1WACXX_L4_IATTCCT.bam
-rwxrwx--- 1 zare G-816158 7.3G Aug  3  2017 6976_TCX.FCC5T2GACXX_L1_ITTAGGC.bam
-rwxrwx--- 1 zare G-816158 8.6G Aug  3  2017 11271_TCX.FCC5RKCACXX_L7_ICGTACG.bam
-rwxrwx--- 1 zare G-816158 7.0G Aug  3  2017 1089_TCX.FCC5RK8ACXX_L7_IGTTTCG.bam
-rwxrwx--- 1 zare G-816158 8.5G Aug  3  2017 1195_TCX.FCC5RNRACXX_L5_ITTAGGC.bam
-rwxrwx--- 1 zare G-816158 7.1G Aug  3  2017 1302_TCX.FCC5RK8ACXX_L2_IGGCTAC.bam
-rwxrwx--- 1 zare G-816158 8.5G Aug  3  2017 11443_TCX.FCC5T1WACXX_L6_IGGCTAC.bam
-rwxrwx--- 1 zare G-816158 7.5G Aug  3  2017 786_TCX.FCC450BACXX_L1_ITTAGGC.bam
-rwxrwx--- 1 zare G-816158 7.3G Aug  3  2017 948_TCX.FCC5RKCACXX_L5_IACTTGA.bam
-rwxrwx--- 1 zare G-816158 7.9G Aug  3  2017 6929_TCX.FCC60K0ACXX_L4_ITAGCTT.bam
-rwxrwx--- 1 zare G-816158 9.1G Aug  3  2017 11506_TCX.FCC5RNRACXX_L7_IGTGGCC.bam
-rwxrwx--- 1 zare G-816158 7.9G Aug  3  2017 6880_TCX.FCC6366ACXX_L1_ITTAGGC.bam
-rwxrwx--- 1 zare G-816158  11G Aug  3  2017 1085_TCX.FCC5R6PACXX_L4_IATTCCT.bam
-rwxrwx--- 1 zare G-816158 9.5G Aug  3  2017 11383_TCX.FCC5T1WACXX_L1_IACTTGA.bam
-rwxrwx--- 1 zare G-816158 6.4G Aug  3  2017 1137_TCX.FCC47ADACXX_L4_IATTCCT.bam
-rwxrwx--- 1 zare G-816158 9.4G Aug  3  2017 11303_TCX.FCC44HKACXX_L8_IATTCCT.bam
-rwxrwx--- 1 zare G-816158 6.8G Aug  3  2017 1169_TCX.FCC5RK8ACXX_L8_IACTGAT.bam
-rwxrwx--- 1 zare G-816158 9.0G Aug  3  2017 11445_TCX.FCC6178ACXX_L8_IACTTGA.bam
-rwxrwx--- 1 zare G-816158 8.7G Aug  3  2017 1052_TCX.FCC47B4ACXX_L5_ITTAGGC.bam
-rwxrwx--- 1 zare G-816158 8.9G Aug  3  2017 6925_TCX.FCC5R6PACXX_L7_IGTGGCC.bam
-rwxrwx--- 1 zare G-816158  11G Aug  3  2017 11494_TCX.FCC47ADACXX_L8_IATTCCT.bam
-rwxrwx--- 1 zare G-816158 6.8G Aug  3  2017 11372_TCX.FCC5RK6ACXX_L5_ITTAGGC.bam
-rwxrwx--- 1 zare G-816158 7.6G Aug  3  2017 850_TCX.FCC60K0ACXX_L3_ICGTACG.bam
-rwxrwx--- 1 zare G-816158  20G Aug  3  2017 11492_TCX.FCC47ADACXX_L6_ITAGCTT.bam
-rwxrwx--- 1 zare G-816158  10G Aug  3  2017 7015_TCX.FCC5T2GACXX_L3_IGTGGCC.bam
-rwxrwx--- 1 zare G-816158 8.7G Aug  3  2017 1103_TCX.FCC450BACXX_L4_IATTCCT.bam
-rwxrwx--- 1 zare G-816158 8.9G Aug  3  2017 981_TCX.FCC5RK6ACXX_L6_IGGCTAC.bam
-rwxrwx--- 1 zare G-816158  16G Aug  3  2017 1045_TCX.FCC5R6PACXX_L2_IGGCTAC.bam
-rwxrwx--- 1 zare G-816158 7.3G Aug  3  2017 7095_TCX.FCC5RKCACXX_L5_IATCACG.bam
-rwxrwx--- 1 zare G-816158 7.4G Aug  3  2017 11279_TCX.FCC47ADACXX_L8_IACTGAT.bam
-rwxrwx--- 1 zare G-816158 9.8G Aug  3  2017 797_TCX.FCC5R6PACXX_L7_ICGTACG.bam
-rwxrwx--- 1 zare G-816158 8.4G Aug  3  2017 746_TCX.FCC6178ACXX_L6_IACTTGA.bam
-rwxrwx--- 1 zare G-816158 8.7G Aug  3  2017 1926_TCX.FCC44HKACXX_L7_IGTGGCC.bam
-rwxrwx--- 1 zare G-816158 8.4G Aug  3  2017 11309_TCX.FCC5T1WACXX_L5_IACTTGA.bam
-rwxrwx--- 1 zare G-816158 9.1G Aug  3  2017 946_TCX.FCC44HKACXX_L1_IACTTGA.bam
-rwxrwx--- 1 zare G-816158 6.8G Aug  3  2017 744_TCX.FCC47ADACXX_L5_IACTTGA.bam
-rwxrwx--- 1 zare G-816158 8.1G Aug  3  2017 1936_TCX.FCC450BACXX_L3_ICGTACG.bam
-rwxrwx--- 1 zare G-816158 7.6G Aug  3  2017 11275_TCX.FCC6178ACXX_L5_IGTGGCC.bam
-rwxrwx--- 1 zare G-816158 8.4G Aug  3  2017 1950_TCX.FCC6366ACXX_L8_IATTCCT.bam
-rwxrwx--- 1 zare G-816158 9.8G Aug  3  2017 1945_TCX.FCC5T2GACXX_L2_IGGCTAC.bam
-rwxrwx--- 1 zare G-816158 8.5G Aug  3  2017 1960_TCX.FCC47B4ACXX_L7_ICGTACG.bam
-rwxrwx--- 1 zare G-816158 7.9G Aug  3  2017 1129_TCX.FCC5T2GACXX_L4_IATTCCT.bam
-rwxrwx--- 1 zare G-816158 8.1G Aug  3  2017 11287_TCX.FCC60K0ACXX_L5_IGTTTCG.bam
-rwxrwx--- 1 zare G-816158 7.7G Aug  3  2017 11498_TCX.FCC450BACXX_L2_IGATCAG.bam
-rwxrwx--- 1 zare G-816158  11G Aug  3  2017 11449_TCX.FCC5RKCACXX_L6_ITAGCTT.bam
-rwxrwx--- 1 zare G-816158  13G Aug  3  2017 816_TCX.FCC5T1WACXX_L6_ITAGCTT.bam
-rwxrwx--- 1 zare G-816158 6.9G Aug  3  2017 11307_TCX.FCC5RK8ACXX_L5_ITTAGGC.bam
-rwxrwx--- 1 zare G-816158 8.2G Aug  3  2017 11285_TCX.FCC5RNRACXX_L2_IGGCTAC.bam
-rwxrwx--- 1 zare G-816158 6.9G Aug  3  2017 775_TCX.FCC47ADACXX_L2_IGGCTAC.bam
-rwxrwx--- 1 zare G-816158 7.1G Aug  3  2017 11249_TCX.FCC5RK8ACXX_L4_IACTGAT.bam
-rwxrwx--- 1 zare G-816158 8.9G Aug  3  2017 11381_TCX.FCC5T2GACXX_L3_IGTTTCG.bam
-rwxrwx--- 1 zare G-816158 7.4G Aug  3  2017 11258_TCX.FCC6366ACXX_L1_IACTTGA.bam
-rwxrwx--- 1 zare G-816158 9.0G Aug  3  2017 11505_TCX.FCC6366ACXX_L2_IGATCAG.bam
-rwxrwx--- 1 zare G-816158 8.6G Aug  3  2017 1104_TCX.FCC450BACXX_L1_IATCACG.bam
-rwxrwx--- 1 zare G-816158 8.8G Aug  3  2017 1951_TCX.FCC5RKCACXX_L7_IGTGGCC.bam
-rwxrwx--- 1 zare G-816158 7.9G Aug  3  2017 1963_TCX.FCC5T1WACXX_L7_ICGTACG.bam
-rwxrwx--- 1 zare G-816158 7.5G Aug  3  2017 11404_TCX.FCC44HKACXX_L7_IGTTTCG.bam
-rwxrwx--- 1 zare G-816158 7.6G Aug  3  2017 933_TCX.FCC44RVACXX_L2_ITAGCTT.bam
-rwxrwx--- 1 zare G-816158  12G Aug  3  2017 1919_TCX.FCC5R6PACXX_L3_IGTGGCC.bam
-rwxrwx--- 1 zare G-816158  10G Aug  3  2017 11355_TCX.FCC60K0ACXX_L2_IATCACG.bam
-rwxrwx--- 1 zare G-816158 7.5G Aug  3  2017 132_TCX.FCC44RVACXX_L6_IGGCTAC.bam
-rwxrwx--- 1 zare G-816158 8.7G Aug  3  2017 976_TCX.FCC5R6PACXX_L5_ITTAGGC.bam
-rwxrwx--- 1 zare G-816158  12G Aug  3  2017 11489_TCX.FCC5RKCACXX_L3_ICGTACG.bam
-rwxrwx--- 1 zare G-816158 9.6G Aug  3  2017 7000_TCX.FCC44RVACXX_L8_IATTCCT.bam
-rwxrwx--- 1 zare G-816158 7.3G Aug  3  2017 11452_TCX.FCC5RKCACXX_L8_IATTCCT.bam
-rwxrwx--- 1 zare G-816158 6.5G Aug  3  2017 7098_TCX.FCC47B4ACXX_L2_IGATCAG.bam
-rwxrwx--- 1 zare G-816158 5.3G Aug  3  2017 1955_TCX.FCC5RK8ACXX_L5_IATCACG.bam
-rwxrwx--- 1 zare G-816158 7.1G Aug  3  2017 1924_TCX.FCC5R6PACXX_L3_IGTTTCG.bam
-rwxrwx--- 1 zare G-816158 8.2G Aug  3  2017 1034_TCX.FCC5RNRACXX_L4_IATTCCT.bam
-rwxrwx--- 1 zare G-816158 8.3G Aug  3  2017 11502_TCX.FCC47B4ACXX_L4_IACTGAT.bam
-rwxrwx--- 1 zare G-816158 6.9G Aug  3  2017 134_TCX.FCC6178ACXX_L7_ITAGCTT.bam
-rwxrwx--- 1 zare G-816158  12G Aug  3  2017 11259_TCX.FCC450BACXX_L3_IGTTTCG.bam
-rwxrwx--- 1 zare G-816158 7.6G Aug  3  2017 11457_TCX.FCC47B4ACXX_L4_IGAGTGG.bam
-rwxrwx--- 1 zare G-816158 7.6G Aug  3  2017 11370_TCX.FCC5RK6ACXX_L3_IGTGGCC.bam
-rwxrwx--- 1 zare G-816158 8.7G Aug  3  2017 11357_TCX.FCC44HKACXX_L2_ITAGCTT.bam
-rwxrwx--- 1 zare G-816158 8.6G Aug  3  2017 11410_TCX.FCC44HKACXX_L3_IGTGGCC.bam
-rwxrwx--- 1 zare G-816158 9.2G Aug  3  2017 11276_TCX.FCC6366ACXX_L3_IGAGTGG.bam
-rwxrwx--- 1 zare G-816158  12G Aug  3  2017 11499_TCX.FCC5R6PACXX_L3_ICGTACG.bam
-rwxrwx--- 1 zare G-816158 7.8G Aug  3  2017 1019_TCX.FCC450BACXX_L2_IGGCTAC.bam
-rwxrwx--- 1 zare G-816158 7.6G Aug  3  2017 127_TCX.FCC450BACXX_L8_IACTGAT.bam
-rwxrwx--- 1 zare G-816158  10G Aug  3  2017 844_TCX.FCC5RNRACXX_L7_ICGTACG.bam
-rwxrwx--- 1 zare G-816158 6.7G Aug  3  2017 783_TCX.FCC450BACXX_L1_IACTTGA.bam
-rwxrwx--- 1 zare G-816158 9.2G Aug  3  2017 1932_TCX.FCC60K0ACXX_L4_IGTTTCG.bam
drwxrws--- 4 zare G-816158   18 Sep  3 09:38 ..
-rw-rw---- 1 zare G-816158    0 Sep  3 09:40 ls.txt
drwxrws--- 2 zare G-816158  17K Sep  3 09:40 .
